<svg xmlns="http://www.w3.org/2000/svg" viewBox="0 0 18 16">
  <title>list</title>
  <g>
    <path d="M6,1H18V3H6ZM6,13H18v2H6ZM6,7H18V9H6ZM2,4A2,2,0,1,1,4,2,2,2,0,0,1,2,4Zm0,6A2,2,0,1,1,4,8,2,2,0,0,1,2,10Zm0,6a2,2,0,1,1,2-2A2,2,0,0,1,2,16Z"/>
    <path d="M6,1H18V3H6ZM6,13H18v2H6ZM6,7H18V9H6ZM2,4A2,2,0,1,1,4,2,2,2,0,0,1,2,4Zm0,6A2,2,0,1,1,4,8,2,2,0,0,1,2,10Zm0,6a2,2,0,1,1,2-2A2,2,0,0,1,2,16Z"/>
  </g>
</svg>
